{
  "type": "service_account",
  "project_id": "test-31a95",
  "private_key_id": "87e22b087cd25b750c85fd3e140121def0ab359c",
  "private_key": "-----BEGIN PRIVATE KEY-----\nMIIEvAIBADANBgkqhkiG9w0BAQEFAASCBKYwggSiAgEAAoIBAQC7p0vo+wBrtkit\nLIOiJFpk8MQZB0+veO1HlcW9cjuHt/bZqBG+r7Ta4yZZNaZ1LbbKrWvd6ckYtCyL\nvoZ+bvlo3Ka8F5/OAvQKcwUr4Rovp53/w2IXoFEkZu6KEiqZGwAw8wlc0cKOX+8q\nH//a/54P4Ao5B5V39Qe5mUTCJgRfl9jZI1jAnUOX9vc8xB/AnUP9O18W6oQHgWZd\n/1/BnEVrCgAmbNQQM/rHh8ofiw3jTPIhPj2+4SMzwFmE0RnzZNAaRqE3hS00H76m\nVJijyoC/tkCxLoSz9Cq6MO4XXyo2pCXiLxuRrx34C7nA8Y/vVd/t2YVu2gv0LY15\nJXT5UnKDAgMBAAECggEACsRc86pAlO2URUjHk2xt5LAiivkYwQ25jPZIA/MOUrQ4\ngraaW2GY3pz9R03FFkt1hd2Q0d58fmFgKPMuo7SEX62WwjYXd5TtzGewb/BuNeEd\nN16jkzgh+mpkMiHmtdA5y5U2VVASeg7WbzP/fzZUKxRaIc7l7Ehv6rNOTFbYFg/2\nvZfZg+8ej4R7+HzfwyHPU5K6r4TVHt1aOOBzfC9MxRE/320OjbAJm5D1ZJCpeDdp\nz41VWZgvskoknkk+/dfTHJKxtk9biKML+bujNifMRPVTBPcFLsIDZISPPnw30omv\nJT3wdUl5FGpN5lM+eCceXqVGp3wwRsb8EcOFeat7iQKBgQD1mIjDHQdmVbLue2gd\nqbAAtl69B6A6uJXCPydqs7qRJrceu+HjQNWPqbHfYHKNP7uDMw5n7hB+5q8+K49F\nJhmQ6lrZJz+vmCD6htbnCm7jG5GDNUQyB2K2nE1h4Ommnr0y5dZs/Z0zVVFO8V4t\n2AiairzhVaFqVnhzaOvstJmRxQKBgQDDmmH1QmqCd1Gpg7xYgRGKWRSfLvrRNvhG\nc2W393nAIg5UODbjGSBVONjervrc8JLQ1JodAjQy8I7sWEpj67cQgNW6JwceQO8W\nw2gGk2liXGSlLs0+Pic9b5B2Scjj1BJ+9hmdok2enyOlYlJb5DmmwZtoEazV+J7f\ngoMQad+fpwKBgExNNIgx15+ylmHDU2iL1JOUFUDzQpObz2NHDa734cnA1nmk85wQ\nA4mbthhpNY2utEohraMacmOKtf1BuURJfv3n4Yu/xuh+AhjzlYa4VhUW9pFmFibY\n5pFHZD85ij3q6WsLvx+jd5iAND+re5AQozOoUOBNI1YPQWLRwSKMRX3lAoGAL5Gh\n9QVb5bKi13jEGzn4TA7x5uyD7tFRe8Cgoia7IzClD3JEVuJLbK5Qf4dKVuTir4qk\nmB1rGGBMQcoO/VHbyVWrpIPNRVxBSOXorIC5BkS17T3+h/6RiG1TUpELG+z9Oocb\nH6zS95p4DsZkhRhxtM4svxhdUgQOjwisWxeEXM0CgYAlm+x6I/8xFRhXtg8wff1v\n8k6n+2E/MpnscxuGEYxjFc2h5FuffZy2rX778VQVm1y/khcPVFmoKFmcSaUARXNe\nqKb83pzbvIb2VHM/GaSS1NL6ElcT/IXJ0xAd5OWUMNceUf3r1viuoWg67diugD6W\nN2MGUhF4c44R9kfUHANxsw==\n-----END PRIVATE KEY-----\n",
  "client_email": "firebase-adminsdk-777hf@test-31a95.iam.gserviceaccount.com",
  "client_id": "101821242297262093789",
  "auth_uri": "https://accounts.google.com/o/oauth2/auth",
  "token_uri": "https://oauth2.googleapis.com/token",
  "auth_provider_x509_cert_url": "https://www.googleapis.com/oauth2/v1/certs",
  "client_x509_cert_url": "https://www.googleapis.com/robot/v1/metadata/x509/firebase-adminsdk-777hf%40test-31a95.iam.gserviceaccount.com"
}
